-10 0.9860318718806417
-9 0.9815127196034182
-8 0.9755677002220137
-7 0.9677736896052594
-6 0.9576014121514582
-5 0.9444027033528523
-4 0.9274067027020484
-3 0.9057336610741686
-2 0.8784381845978485
-1 0.8445952027378645
0 0.8034385613414395
1 0.7545497968178163
2 0.698070953103998
3 0.6348847015754225
4 0.5666833030032541
5 0.4958584079953979
6 0.4251993345399595
7 0.3574696213967717
8 0.294991732802567
9 0.2393656091713238
10 0.19138138439025248
