-10 0.9999999999999873
-9 0.9999999999985318
-8 0.9999999998290021
-7 0.9999999800835806
-6 0.99999768030566
-5 0.9997298935561679
-4 0.9694917783085991
-3 0.21435479568350435
-2 0.0023370611893405394
-1 0.000020112081159223496
0 0.00000017268124695308142
1 0.0000000014826025883996994
2 0.000000000012729292270191569
3 0.0000000000001092908394546456
4 0.0000000000000009383465580818086
5 0.000000000000000008056432427982924
6 0.00000000000000000006917071620035342
7 0.0000000000000000000005938842064945751
8 0.0000000000000000000000050989561782488675
9 0.00000000000000000000000004377849052623323
10 0.00000000000000000000000000037587226988361923
