0.4372564472059125 0.3749126788132091 10.118534434071995 0.6136728973147505
0.8754848272598936 0.24857412463631645 -0.05934075894126237 -2.8678588403949004
1.8001791581608557 0.6736537579471673 -5.163781051488385 0.38815009233805764
0.6157785488017619 0.7957115315708273 -0.1449094230227212 -0.9675520222494156
0.8867654090923446 0.8238874186403271 0.22293591200606439 0.799529051420899
0.11856430252105565 0.2676694677373895 -0.04269130584823554 -0.20553781455749712
7.811858030754968 -7.852475629612372 -3.7870296052451295 9.210213729228073
-12.363129497150481 4.238373683368933 4.542260461917502 -5.835106741798728
